Final Project EDA
…
name_doc <- read_tsv("data/raw/name.basics.tsv",
                     na = "\\N") %>% 
  clean_names()

nomination_stats <- read_csv("data/raw/nomination_stats.csv") %>% 
  clean_names()

After importing the raw datasets, the warnings generated indicates that there are parsing issues in title and principals datasets. So I use problems() to find out source of the issues.

Code

# Find out rows and columns where parsing issues occur
problems(title)

# A tibble: 30 × 5
       row   col expected  actual      file                                     
     <int> <int> <chr>     <chr>       <chr>                                    
 1 1097682     8 9 columns 8 columns   /Users/xujinghan/Desktop/data science/st…
 2 1097682     8 a double  Reality-TV  /Users/xujinghan/Desktop/data science/st…
 3 1508850     8 9 columns 8 columns   /Users/xujinghan/Desktop/data science/st…
 4 1508850     8 a double  Talk-Show   /Users/xujinghan/Desktop/data science/st…
 5 1898135     8 9 columns 8 columns   /Users/xujinghan/Desktop/data science/st…
 6 1898135     8 a double  Documentary /Users/xujinghan/Desktop/data science/st…
 7 2009209     8 9 columns 8 columns   /Users/xujinghan/Desktop/data science/st…
 8 2009209     8 a double  Talk-Show   /Users/xujinghan/Desktop/data science/st…
 9 2163888     8 9 columns 8 columns   /Users/xujinghan/Desktop/data science/st…
10 2163888     8 a double  Game-Show   /Users/xujinghan/Desktop/data science/st…
# … with 20 more rows
…
